ex/ex11/proj/waveform/password-inject.vcd
$date
	Tue Jun 18 12:56:04 2024
$end
$version
	Icarus Verilog
$end
$timescale
	1ns
$end
$scope module testbench $end
$var wire 10 ! Raddr [9:0] $end
$var wire 1 " Rden $end
$var wire 10 # Waddr [9:0] $end
$var wire 32 $ Wdata [31:0] $end
$var wire 1 % Wren $end
$var wire 4 & Wstrb [3:0] $end
$var wire 1 ' mips_mem_rd $end
$var wire 32 ( mips_mem_rdata [31:0] $end
$var wire 4 ) mips_mem_wstrb [3:0] $end
$var wire 32 * mips_mem_wdata [31:0] $end
$var wire 32 + mips_mem_addr [31:0] $end
$var wire 32 , Rdata [31:0] $end
$var wire 32 - PC [31:0] $end
$var wire 1 . MemWrite $end
$var wire 1 / MemRead $end
$var wire 32 0 Instruction [31:0] $end
$var reg 1 1 mips_cpu_clk $end
$var reg 1 2 mips_cpu_reset $end
$scope module u_ideal_mem $end
$var wire 10 3 Raddr1 [9:0] $end
$var wire 10 4 Raddr2 [9:0] $end
$var wire 32 5 Rdata1 [31:0] $end
$var wire 32 6 Rdata2 [31:0] $end
$var wire 1 7 Rden1 $end
$var wire 1 " Rden2 $end
$var wire 10 8 Waddr [9:0] $end
$var wire 32 9 Wdata [31:0] $end
$var wire 1 % Wren $end
$var wire 4 : Wstrb [3:0] $end
$var wire 1 1 clk $end
$var wire 8 ; byte_3 [7:0] $end
$var wire 8 < byte_2 [7:0] $end
$var wire 8 = byte_1 [7:0] $end
$var wire 8 > byte_0 [7:0] $end
$upscope $end
$scope module u_mips_cpu $end
$var wire 32 ? Instruction [31:0] $end
$var wire 32 @ PCJR [31:0] $end
$var wire 5 A RF_raddr1 [4:0] $end
$var wire 5 B RF_waddr [4:0] $end
$var wire 32 C RF_wdata [31:0] $end
$var wire 32 D Read_data [31:0] $end
$var wire 1 1 clk $end
$var wire 1 E jaljalr $end
$var wire 1 F jrra $end
$var wire 32 G nextPC [31:0] $end
$var wire 1 2 rst $end
$var wire 5 H sa [4:0] $end
$var wire 5 I rt [4:0] $end
$var wire 5 J rs [4:0] $end
$var wire 5 K rd [4:0] $end
$var wire 6 L op [5:0] $end
$var wire 6 M func [5:0] $end
$var wire 4 N Write_strb [3:0] $end
$var wire 32 O Write_data [31:0] $end
$var wire 32 P Signimm [31:0] $end
$var wire 1 Q RegDst $end
$var wire 1 R RF_wen $end
$var wire 32 S RF_rdata2 [31:0] $end
$var wire 32 T RF_rdata1 [31:0] $end
$var wire 5 U RF_raddr2 [4:0] $end
$var wire 32 V PCadd [31:0] $end
$var wire 2 W PCSrc [1:0] $end
$var wire 32 X PCJA [31:0] $end
$var wire 32 Y PCBranch [31:0] $end
$var wire 2 Z MemtoReg [1:0] $end
$var wire 1 . MemWrite $end
$var wire 1 / MemRead $end
$var wire 32 [ Data_out [31:0] $end
$var wire 32 \ Address_out [31:0] $end
$var wire 32 ] Address [31:0] $end
$var wire 1 ^ ALUsa $end
$var wire 1 _ ALU_Zero $end
$var wire 1 ` ALU_Signal $end
$var wire 32 a ALU_Result [31:0] $end
$var wire 1 b ALU_Overflow $end
$var wire 1 c ALU_CarryOut $end
$var wire 32 d ALU_B [31:0] $end
$var wire 4 e ALU_ALUop [3:0] $end
$var wire 32 f ALU_A [31:0] $end
$var wire 1 g ALUSrc $end
$var reg 32 h PC [31:0] $end
$var reg 32 i sp [31:0] $end
$scope module ALU $end
$var wire 32 j A [31:0] $end
$var wire 32 k B [31:0] $end
$var wire 1 l Overflow_Add $end
$var wire 1 m Overflow_Sub $end
$var wire 32 n Result [31:0] $end
$var wire 32 o Result_And [31:0] $end
$var wire 32 p Result_Mov [31:0] $end
$var wire 32 q Result_Nor [31:0] $end
$var wire 32 r Result_Or [31:0] $end
$var wire 32 s Result_Slt [31:0] $end
$var wire 32 t Result_Xor [31:0] $end
$var wire 1 _ Zero $end
$var wire 1 ` Signal $end
$var wire 32 u Result_Sub [31:0] $end
$var wire 32 v Result_Srl [31:0] $end
$var wire 32 w Result_Sra [31:0] $end
$var wire 32 x Result_Sltu [31:0] $end
$var wire 32 y Result_Sll [31:0] $end
$var wire 33 z Result_S [32:0] $end
$var wire 32 { Result_Add [31:0] $end
$var wire 1 b Overflow $end
$var wire 1 c CarryOut $end
$var wire 4 | ALUop [3:0] $end
$upscope $end
$scope module Controller $end
$var wire 1 } ALU_And $end
$var wire 1 ~ ALU_Bgez $end
$var wire 1 !" ALU_Movn $end
$var wire 1 "" ALU_Movz $end
$var wire 1 #" ALU_Nor $end
$var wire 1 $" ALU_Or $end
$var wire 1 %" ALU_Sll $end
$var wire 1 &" ALU_Slt $end
$var wire 1 '" ALU_Sltu $end
$var wire 1 (" ALU_Sra $end
$var wire 1 )" ALU_Srl $end
$var wire 1 *" ALU_Sub $end
$var wire 1 +" ALU_Xor $end
$var wire 4 ," ALUop [3:0] $end
$var wire 1 ^ ALUsa $end
$var wire 1 -" Branch $end
$var wire 1 ." Branch1 $end
$var wire 1 /" Branch2 $end
$var wire 1 0" Branch3 $end
$var wire 1 1" BranchSignal $end
$var wire 1 2" I_type $end
$var wire 32 3" Instruction [31:0] $end
$var wire 1 4" J_type $end
$var wire 1 / MemRead $end
$var wire 1 . MemWrite $end
$var wire 1 R RegWrite $end
$var wire 1 ` Signal $end
$var wire 1 _ Zero $end
$var wire 1 5" jaljalr $end
$var wire 1 6" jrra $end
$var wire 6 7" op [5:0] $end
$var wire 6 8" func [5:0] $end
$var wire 1 Q RegDst $end
$var wire 1 9" R_type $end
$var wire 2 :" PCSrc [1:0] $end
$var wire 2 ;" MemtoReg [1:0] $end
$var wire 1 g ALUSrc $end
$upscope $end
$scope module Dataconverter $end
$var wire 32 <" Address_in [31:0] $end
$var wire 32 =" Data_in [31:0] $end
$var wire 32 >" Data_lb [31:0] $end
$var wire 32 ?" Data_lbu [31:0] $end
$var wire 32 @" Data_lh [31:0] $end
$var wire 32 A" Data_lhu [31:0] $end
$var wire 32 B" Data_load [31:0] $end
$var wire 32 C" Data_lwl [31:0] $end
$var wire 32 D" Data_lwr [31:0] $end
$var wire 32 E" Data_sb [31:0] $end
$var wire 32 F" Data_sh [31:0] $end
$var wire 32 G" Data_store [31:0] $end
$var wire 32 H" Data_swl [31:0] $end
$var wire 32 I" Data_swr [31:0] $end
$var wire 32 J" Instruction [31:0] $end
$var wire 4 K" Write_strb [3:0] $end
$var wire 4 L" Write_strb_sb [3:0] $end
$var wire 4 M" Write_strb_sh [3:0] $end
$var wire 4 N" Write_strb_swl [3:0] $end
$var wire 4 O" Write_strb_swr [3:0] $end
$var wire 6 P" op [5:0] $end
$var wire 2 Q" n [1:0] $end
$var wire 32 R" Data_rf2 [31:0] $end
$var wire 32 S" Data_out [31:0] $end
$var wire 32 T" Address_out [31:0] $end
$upscope $end
$scope module RF $end
$var wire 1 1 clk $end
$var wire 5 U" raddr1 [4:0] $end
$var wire 5 V" raddr2 [4:0] $end
$var wire 1 2 rst $end
$var wire 5 W" waddr [4:0] $end
$var wire 32 X" wdata [31:0] $end
$var wire 1 R wen $end
$var wire 32 Y" rdata2 [31:0] $end
$var wire 32 Z" rdata1 [31:0] $end
$upscope $end
$upscope $end
$upscope $end
$enddefinitions $end
#0
$dumpvars
b0 Z"
b0 Y"
b0 X"
b11110 W"
b0 V"
b0 U"
b0 T"
b0 S"
b0 R"
b0 Q"
b0 P"
b1111 O"
b1 N"
b11 M"
b1 L"
b1 K"
b1111000000100101 J"
b0 I"
b0 H"
b0 G"
b0 F"
b0 E"
b0 D"
b0 C"
b0 B"
b0 A"
b0 @"
b0 ?"
b0 >"
b0 ="
b0 <"
b0 ;"
b0 :"
19"
b100101 8"
b0 7"
06"
05"
04"
b1111000000100101 3"
02"
01"
00"
0/"
0."
0-"
b10 ,"
0+"
0*"
0)"
0("
0'"
0&"
0%"
1$"
0#"
0""
0!"
0~
0}
b10 |
b0 {
b0 z
b0 y
b0 x
b0 w
b0 v
b0 u
b0 t
b0 s
b0 r
b11111111111111111111111111111111 q
b0 p
b0 o
b0 n
0m
0l
b0 k
b0 j
b10000000000000000000100000000000 i
b0 h
0g
b0 f
b10 e
b0 d
0c
0b
b0 a
0`
0_
0^
b0 ]
b0 \
b0 [
b0 Z
b11111111111111111100000010011000 Y
b111100000010010100 X
b0 W
b100 V
b0 U
b0 T
b0 S
1R
1Q
b11111111111111111111000000100101 P
b0 O
b1 N
b100101 M
b0 L
b11110 K
b0 J
b0 I
b0 H
b100 G
0F
0E
b0 D
b0 C
b11110 B
b0 A
b0 @
b1111000000100101 ?
b100101 >
b11110000 =
b0 <
b0 ;
b0 :
b0 9
b0 8
17
b0 6
b1111000000100101 5
b0 4
b0 3
12
01
b1111000000100101 0
0/
0.
b0 -
b0 ,
b0 +
b0 *
b1 )
b0 (
0'
b0 &
0%
b0 $
b0 #
0"
b0 !
$end
#10
11
#20
01
#30
b1111 O"
b11 M"
b0 D"
b1 L"
b1 N"
b10000000000000010000000000000000 C
b10000000000000010000000000000000 X"
b10000000000000010000000000000000 +
b10000000000000010000000000000000 ]
b10000000000000010000000000000000 \
b10000000000000010000000000000000 T"
b0 Q"
b10000000000000010000000000000000 a
b10000000000000010000000000000000 n
b10000000000000010000000000000000 <"
b0 e
b0 |
b0 ,"
b0 W
b0 :"
bx H"
b0xxxxxxxx E"
b0xxxxxxxxxxxxxxxxxxxxxxxx C"
1m
b0 s
01"
b0xxxxxxxxxxxxxxxx F"
bx I"
b1111111111111101111111111111111 q
0c
b10000000000000010000000000000000 {
b10000000000000010000000000000000 u
b0 x
b1111 )
b1111 N
b1111 K"
b10000000000000010000000000000000 r
b10000000000000010000000000000000 t
b10000000000000010000000000000000 z
0/"
1g
b10000000000000010000000000000000 y
b10000000000000010000000000000000 v
b10000000000000010000000000000000 w
b10000000000000010000000000000000 d
b10000000000000010000000000000000 k
0Q
bx S
bx R"
bx Y"
b11101 B
b11101 W"
0-"
0$"
b1000 G
b10000000000000010000000000000000 P
b11101 U
b11101 V"
12"
b11101100000000000000100 X
b1111 L
b11101 I
b10000 K
b1 M
09"
b1111 7"
b1 8"
b1111 P"
b111100000111011000000000000001 0
b111100000111011000000000000001 5
b111100000111011000000000000001 ?
b111100000111011000000000000001 3"
b111100000111011000000000000001 J"
b1 3
b1000000000000001000 Y
b1000 V
b100 -
b100 h
11
02
#40
01
#50
b0 D"
b1 L"
b1 N"
b1111 O"
b11 M"
b10000000000000001001000000000000 C
b10000000000000001001000000000000 X"
b0 Q"
b10000000000000001001000000000000 +
b10000000000000001001000000000000 ]
b10000000000000001001000000000000 \
b10000000000000001001000000000000 T"
b10000000000000001001000000000000 a
b10000000000000001001000000000000 n
b10000000000000001001000000000000 <"
b0 *
b0 O
0m
b1 s
b0 [
b0 S"
b0 G"
b10000000000000010000000000000000 o
b110111111111111 q
b11 )
b11 N
b11 K"
b1000000000000000010000000 H"
b0 E"
b10000000000000000 C"
b11111111111111111001000000000000 r
b1111111111111101001000000000000 t
1c
b10000000000000001001000000000000 {
b10000000000000001001000000000000 u
b1 x
b0 F"
b10000000000000010000000000000000 I"
b11111111111111111001000000000000 y
b11111111111111111001000000000000 v
b11111111111111111001000000000000 w
b11111111111111111001000000000000 d
b11111111111111111001000000000000 k
b10000000000000010000000000000000 p
b110000000000000001001000000000000 z
b10000000000000010000000000000000 f
b10000000000000010000000000000000 j
b1100 G
b11111111111111111001000000000000 P
b10000000000000010000000000000000 @
b10000000000000010000000000000000 T
b10000000000000010000000000000000 Z"
b1110111101100100000000000000 X
b1001 L
b11101 A
b11101 U"
b11101 J
b10010 K
b0 M
b1001 7"
b0 8"
b1001 P"
b100111101111011001000000000000 0
b100111101111011001000000000000 5
b100111101111011001000000000000 ?
b100111101111011001000000000000 3"
b100111101111011001000000000000 J"
b10000000000000010000000000000000 S
b10000000000000010000000000000000 R"
b10000000000000010000000000000000 Y"
b10 3
b11111111111111100100000000001100 Y
b1100 V
b1000 -
b1000 h
11
#60
01
#70
b0 \
b0 T"
b0 a
b0 n
b0 <"
b0 s
0b
0l
b11111111111111111111111111111111 q
b1000000000 #
b1000000000 8
0m
b10100 >
b0 =
0g
b0 [
b0 S"
b0 r
1Q
b10100 C
b10100 X"
b0 G"
b1111 )
b1111 N
b1111 K"
b0 H"
b0 C"
b0 y
b0 v
b0 w
b0 d
b0 k
b10000000000000000000100000000000 +
b10000000000000000000100000000000 ]
0c
b0 x
b11111 B
b11111 W"
b11 W
b11 :"
b1111 &
b1111 :
b10100 $
b10100 9
b0 F"
b0 I"
b101010000 P
b10100 *
b10100 O
02"
b10 Z
b10 ;"
1%
1.
b10101000000 G
1E
b0 U
b0 V"
14"
15"
b0 o
b0 t
b0 {
b0 u
b10101000000 X
b11 L
b0 A
b0 U"
b0 J
b0 I
b0 K
b101 H
b10000 M
b11 7"
b10000 8"
b11 P"
b0 p
b0 z
b0 f
b0 j
b1100000000000000000101010000 0
b1100000000000000000101010000 5
b1100000000000000000101010000 ?
b1100000000000000000101010000 3"
b1100000000000000000101010000 J"
b0 @
b0 T
b0 Z"
b0 S
b0 R"
b0 Y"
b11 3
b10101010000 Y
b10000 V
b1100 -
b1100 h
11
#80
01
#90
b10000000000000001000111111101000 \
b10000000000000001000111111101000 T"
b10000000000000001000111111101000 a
b10000000000000001000111111101000 n
b10000000000000001000111111101000 <"
b1001000000000000 [
b1001000000000000 S"
b1001000000000000 G"
0b
b100100000000000010000000 H"
b1001000000000000 C"
0l
b11101 B
b11101 W"
b1111111111111110110111111101000 t
b1001000000000000 F"
b10000000000000001001000000000000 I"
b1 s
1c
b1 x
00"
1g
b10111 q
0Q
b11 )
b11 N
b11 K"
b10000000000000001001000000000000 o
b11111111111111111111111111101000 r
b10000000000000001000111111101000 {
b10000000000000001000111111101000 u
b11111111111111111111111111101000 y
b11111111111111111111111111101000 v
b11111111111111111111111111101000 w
b11111111111111111111111111101000 d
b11111111111111111111111111101000 k
0-"
b0 W
b0 :"
b0 &
b0 :
b11111111111111111111111111101000 P
b10101000100 G
b10000000000000001001000000000000 p
b110000000000000001000111111101000 z
b10000000000000001001000000000000 f
b10000000000000001001000000000000 j
b10000000000000001001000000000000 S
b10000000000000001001000000000000 R"
b10000000000000001001000000000000 Y"
12"
b0 Z
b0 ;"
0%
0.
b100101 >
b11110000 =
0E
b10000000000000001001000000000000 @
b10000000000000001001000000000000 T
b10000000000000001001000000000000 Z"
b11101 U
b11101 V"
04"
05"
b0 #
b0 8
b1110111101111111111110100000 X
b1001 L
b11101 A
b11101 U"
b11101 J
b11101 I
b11111 K
b11111 H
b101000 M
b1001 7"
b101000 8"
b1001 P"
b0 $
b0 9
b10000000000000001000111111101000 C
b10000000000000001000111111101000 X"
b100111101111011111111111101000 0
b100111101111011111111111101000 5
b100111101111011111111111101000 ?
b100111101111011111111111101000 3"
b100111101111011111111111101000 J"
b10000000000000001000111111101000 +
b10000000000000001000111111101000 ]
b1001000000000000 *
b1001000000000000 O
b101010000 3
b10000000000000000000100000000100 i
b10011100100 Y
b10101000100 V
b10101000000 -
b10101000000 h
11
#100
01
#110
b10000000000000001000111111111100 C
b10000000000000001000111111111100 X"
b10000000000000001000111111111100 +
b10000000000000001000111111111100 ]
b10000000000000001000111111111100 \
b10000000000000001000111111111100 T"
b10000000000000001000111111111100 a
b10000000000000001000111111111100 n
b10000000000000001000111111111100 <"
b0 ;
b10100 >
b0 =
b10100 *
b10100 O
b1111111111111110111000000000011 q
0c
b0 x
0R
b10100 [
b10100 S"
b10000000000000001000111111111100 r
b1111111111 #
b1111111111 8
b1111 &
b1111 :
b10100 $
b10100 9
b10100 G"
b1111 )
b1111 N
b1111 K"
b1010000000000 H"
b10100 E"
b10100 C"
b10100 d
b10100 k
b11111 B
b11111 W"
1%
1.
b10100 F"
b10100 I"
b10100 P
b10101001000 G
b11111 U
b11111 V"
b0 o
b10000000000000001000111111111100 t
b10000000000000001000111111111100 {
b10000000000000001000111111111100 u
b1010000000000 y
b0 v
b0 w
b1110111111000000000001010000 X
b101011 L
b11111 I
b0 K
b0 H
b10100 M
b101011 7"
b10100 8"
b101011 P"
b10000000000000001000111111101000 p
b10000000000000001000111111111100 z
b10000000000000001000111111101000 f
b10000000000000001000111111101000 j
b10101111101111110000000000010100 0
b10101111101111110000000000010100 5
b10101111101111110000000000010100 ?
b10101111101111110000000000010100 3"
b10101111101111110000000000010100 J"
b10000000000000001000111111101000 @
b10000000000000001000111111101000 T
b10000000000000001000111111101000 Z"
b10100 S
b10100 R"
b10100 Y"
b101010001 3
b10110011000 Y
b10101001000 V
b10101000100 -
b10101000100 h
11
#120
01
#130
b1 L"
b1 N"
b1111 O"
b11 M"
b0 Q"
b0 \
b0 T"
b0 a
b0 n
b0 <"
b0 H"
b0 E"
b0 C"
b0 F"
b0 [
b0 S"
b0 I"
b1000000001 #
b1000000001 8
b1010000 >
b101 =
b0 s
b0 G"
1R
0g
b11111111111111111111111111111111 q
1Q
b10101010000 C
b10101010000 X"
b0 d
b0 k
b10000000000000000000100000000100 +
b10000000000000000000100000000100 ]
b10101010000 $
b10101010000 9
b0 r
b0 t
b0 {
b0 u
b0 y
b0 v
b0 w
b11111 B
b11111 W"
b11 W
b11 :"
b100101101 P
b10101010000 *
b10101010000 O
b0 p
b0 z
b0 f
b0 j
b0 S
b0 R"
b0 Y"
02"
b10 Z
b10 ;"
b10010110100 G
1E
b0 @
b0 T
b0 Z"
b0 U
b0 V"
14"
15"
b10010110100 X
b11 L
b0 A
b0 U"
b0 J
b0 I
b100 H
b101101 M
b11 7"
b101101 8"
b11 P"
b1100000000000000000100101101 0
b1100000000000000000100101101 5
b1100000000000000000100101101 ?
b1100000000000000000100101101 3"
b1100000000000000000100101101 J"
b101010010 3
b101000000000 Y
b10101001100 V
b10101001000 -
b10101001000 h
11
#140
01
#150
b10000000000000001000111111001000 \
b10000000000000001000111111001000 T"
b10000000000000001000111111001000 a
b10000000000000001000111111001000 n
b10000000000000001000111111001000 <"
b1000111111101000 [
b1000111111101000 S"
b1000111111101000 G"
0b
b100011111110100010000000 H"
b11101000 E"
b1000111111101000 C"
0l
b11101 B
b11101 W"
b1111111111111110111000000001000 t
b1000111111101000 F"
b10000000000000001000111111101000 I"
b1 s
1c
b1 x
00"
1g
b10111 q
0Q
b11 )
b11 N
b11 K"
b10000000000000001000111111100000 o
b11111111111111111111111111101000 r
b10000000000000001000111111001000 {
b10000000000000001000111111001000 u
b11111111111111111110000000000000 y
b111111111111111111111111 v
b11111111111111111111111111111111 w
b11111111111111111111111111100000 d
b11111111111111111111111111100000 k
0-"
b0 W
b0 :"
b0 &
b0 :
b11111111111111111111111111100000 P
b10010111000 G
b10000000000000001000111111101000 p
b110000000000000001000111111001000 z
b10000000000000001000111111101000 f
b10000000000000001000111111101000 j
b10000000000000001000111111101000 S
b10000000000000001000111111101000 R"
b10000000000000001000111111101000 Y"
12"
b0 Z
b0 ;"
0%
0.
b100101 >
b11110000 =
0E
b10000000000000001000111111101000 @
b10000000000000001000111111101000 T
b10000000000000001000111111101000 Z"
b11101 U
b11101 V"
04"
05"
b1110111101111111111110000000 X
b1001 L
b11101 A
b11101 U"
b11101 J
b11101 I
b11111 K
b11111 H
b100000 M
b1001 7"
b100000 8"
b1001 P"
b0 #
b0 8
b0 $
b0 9
b10000000000000001000111111001000 C
b10000000000000001000111111001000 X"
b100111101111011111111111100000 0
b100111101111011111111111100000 5
b100111101111011111111111100000 ?
b100111101111011111111111100000 3"
b100111101111011111111111100000 J"
b1000111111101000 *
b1000111111101000 O
b100101101 3
b10000000000000001000111111001000 +
b10000000000000001000111111001000 ]
b10000111000 Y
b10010111000 V
b10010110100 -
b10010110100 h
b10000000000000000000100000001000 i
11
#160
01
#170
b10000000000000001000111111100100 C
b10000000000000001000111111100100 X"
b10000000000000001000111111100100 +
b10000000000000001000111111100100 ]
b10000000000000001000111111100100 \
b10000000000000001000111111100100 T"
b10000000000000001000111111100100 a
b10000000000000001000111111100100 n
b10000000000000001000111111100100 <"
b0 ;
b1010000 >
b101 =
b10101010000 *
b10101010000 O
b1111111111111110111000000100011 q
0c
b0 x
0R
b10101010000 [
b10101010000 S"
b10000000000000001000111111011100 r
b1111111001 #
b1111111001 8
b1111 &
b1111 :
b10101010000 $
b10101010000 9
b10101010000 G"
b1111 )
b1111 N
b1111 K"
b1010101000000000000 H"
b1010000 E"
b10101010000 C"
b1110000000000 y
b0 v
b0 w
b11100 d
b11100 k
b11111 B
b11111 W"
1%
1.
b10101010000 F"
b10101010000 I"
b11100 P
b10010111100 G
b11111 U
b11111 V"
b1000 o
b10000000000000001000111111010100 t
b10000000000000001000111111100100 {
b10000000000000001000111111100100 u
b1110111111000000000001110000 X
b101011 L
b11111 I
b0 K
b0 H
b11100 M
b101011 7"
b11100 8"
b101011 P"
b10000000000000001000111111001000 p
b10000000000000001000111111100100 z
b10000000000000001000111111001000 f
b10000000000000001000111111001000 j
b10101111101111110000000000011100 0
b10101111101111110000000000011100 5
b10101111101111110000000000011100 ?
b10101111101111110000000000011100 3"
b10101111101111110000000000011100 J"
b10000000000000001000111111001000 @
b10000000000000001000111111001000 T
b10000000000000001000111111001000 Z"
b10101010000 S
b10101010000 R"
b10101010000 Y"
b100101110 3
b10100101100 Y
b10010111100 V
b10010111000 -
b10010111000 h
11
#180
01
#190
b1111111000 #
b1111111000 8
b10000000000000001000111111100000 C
b10000000000000001000111111100000 X"
b10000000000000001000111111100000 +
b10000000000000001000111111100000 ]
b10000000000000001000111111100000 \
b10000000000000001000111111100000 T"
b10000000000000001000111111100000 a
b10000000000000001000111111100000 n
b10000000000000001000111111100000 <"
b0 >
b0 =
b0 $
b0 9
b0 H"
b0 E"
b0 C"
b0 *
b0 O
b0 F"
b0 [
b0 S"
b0 I"
b1111111111111110111000000100111 q
b10000000000000001000111111100000 {
b10000000000000001000111111100000 u
b0 G"
b10000000000000001000111111011000 r
b10000000000000001000111111010000 t
b10000000000000001000111111100000 z
b1100000000000 y
b11000 d
b11000 k
b11110 B
b11110 W"
b11000 P
b0 S
b0 R"
b0 Y"
b10011000000 G
b11110 U
b11110 V"
b1110111110000000000001100000 X
b11110 I
b11000 M
b11000 8"
b10101111101111100000000000011000 0
b10101111101111100000000000011000 5
b10101111101111100000000000011000 ?
b10101111101111100000000000011000 3"
b10101111101111100000000000011000 J"
b100101111 3
b10100100000 Y
b10011000000 V
b10010111100 -
b10010111100 h
11
#200
01
#210
b1 L"
b1 N"
b1111 O"
b11 M"
b10000000000000001000111111001000 C
b10000000000000001000111111001000 X"
b10000000000000001000111111001000 +
b10000000000000001000111111001000 ]
b10000000000000001000111111001000 \
b10000000000000001000111111001000 T"
b0 Q"
b10000000000000001000111111001000 a
b10000000000000001000111111001000 n
b10000000000000001000111111001000 <"
b10 e
b10 |
b10 ,"
b100101 >
b11110000 =
1R
b1111111111111110111000000110111 q
0c
b10000000000000001000111111001000 {
b10000000000000001000111111001000 u
b0 x
b1 )
b1 N
b1 K"
b0 o
b10000000000000001000111111001000 r
b10000000000000001000111111001000 t
b10000000000000001000111111001000 z
0g
b0 #
b0 8
b0 &
b0 :
b0 y
b0 v
b0 w
b0 d
b0 k
b11110 B
b11110 W"
1Q
0%
0.
b11111111111111111111000000100101 P
1$"
b10011000100 G
b0 U
b0 V"
02"
b1110100000111100000010010100 X
b0 L
b0 I
b11110 K
b100101 M
19"
b0 7"
b100101 8"
b0 P"
b11101000001111000000100101 0
b11101000001111000000100101 5
b11101000001111000000100101 ?
b11101000001111000000100101 3"
b11101000001111000000100101 J"
b100110000 3
b11111111111111111100010101011000 Y
b10011000100 V
b10011000000 -
b10011000000 h
11
#220
01
#230
b1111 O"
b11 M"
b0 D"
b1 L"
b1 N"
b10000000000000000000000000000000 C
b10000000000000000000000000000000 X"
b10000000000000000000000000000000 +
b10000000000000000000000000000000 ]
b10000000000000000000000000000000 \
b10000000000000000000000000000000 T"
b0 Q"
b0 e
b0 |
b0 ,"
b10000000000000000000000000000000 a
b10000000000000000000000000000000 n
b10000000000000000000000000000000 <"
b0 W
b0 :"
bx H"
b0xxxxxxxx E"
b0xxxxxxxxxxxxxxxxxxxxxxxx C"
1m
01"
b0xxxxxxxxxxxxxxxx F"
bx I"
b0 s
0c
b0 x
b1111 )
b1111 N
b1111 K"
b1111111111111111111111111111111 q
0/"
1g
b10000000000000000000000000000000 r
b10000000000000000000000000000000 t
b10000000000000000000000000000000 {
b10000000000000000000000000000000 u
b10000000000000000000000000000000 y
b10000000000000000000000000000000 v
b10000000000000000000000000000000 w
b10000000000000000000000000000000 d
b10000000000000000000000000000000 k
0Q
b0 p
b10000000000000000000000000000000 z
b0 f
b0 j
bx S
bx R"
bx Y"
b10 B
b10 W"
0-"
0$"
b10011001000 G
b10000000000000000000000000000000 P
b0 @
b0 T
b0 Z"
b10 U
b10 V"
12"
b10100000000000000000 X
b1111 L
b0 A
b0 U"
b0 J
b10 I
b10000 K
b0 M
09"
b1111 7"
b0 8"
b1111 P"
b111100000000101000000000000000 0
b111100000000101000000000000000 5
b111100000000101000000000000000 ?
b111100000000101000000000000000 3"
b111100000000101000000000000000 J"
b100110001 3
b10011001000 Y
b10011001000 V
b10011000100 -
b10011000100 h
11
#240
01
#250
b10000000000000000000010110100000 C
b10000000000000000000010110100000 X"
b10000000000000000000010110100000 +
b10000000000000000000010110100000 ]
b10000000000000000000010110100000 \
b10000000000000000000010110100000 T"
b10000000000000000000010110100000 a
b10000000000000000000010110100000 n
b10000000000000000000010110100000 <"
b0 *
b0 O
0m
b1 s
b0 [
b0 S"
b0 G"
b1111111111111111111101001011111 q
b11 )
b11 N
b11 K"
b10000000 H"
b0 E"
b0 C"
b10000000000000000000010110100000 r
b10000000000000000000010110100000 t
0c
b10000000000000000000010110100000 {
b10000000000000000000010110100000 u
b0 x
b0 F"
b10000000000000000000000000000000 I"
b10110100000 y
b10110100000 v
b10110100000 w
b10110100000 d
b10110100000 k
b10000000000000000000000000000000 p
b10000000000000000000010110100000 z
b10000000000000000000000000000000 f
b10000000000000000000000000000000 j
b10011001100 G
b10110100000 P
b10000000000000000000000000000000 @
b10000000000000000000000000000000 T
b10000000000000000000000000000000 Z"
b1000010000001011010000000 X
b1001 L
b10 A
b10 U"
b10 J
b0 K
b10110 H
b100000 M
b1001 7"
b100000 8"
b1001 P"
b100100010000100000010110100000 0
b100100010000100000010110100000 5
b100100010000100000010110100000 ?
b100100010000100000010110100000 3"
b100100010000100000010110100000 J"
b10000000000000000000000000000000 S
b10000000000000000000000000000000 R"
b10000000000000000000000000000000 Y"
b100110010 3
b1101101001100 Y
b10011001100 V
b10011001000 -
b10011001000 h
11
#260
01
#270
b10000000000000001000111111011000 C
b10000000000000001000111111011000 X"
b10000000000000001000111111011000 +
b10000000000000001000111111011000 ]
b10000000000000001000111111011000 \
b10000000000000001000111111011000 T"
b10000000000000001000111111011000 a
b10000000000000001000111111011000 n
b10000000000000001000111111011000 <"
b10000000 ;
b10000000000000000000010110100000 $
b10000000000000000000010110100000 9
b10100000 >
b101 =
b10000000000000000000010110100000 *
b10000000000000000000010110100000 O
0R
b10000000000000000000010110100000 [
b10000000000000000000010110100000 S"
b1111111111111110111000000100111 q
b1111110110 #
b1111110110 8
b1111 &
b1111 :
b10000000000000000000010110100000 G"
b1111 )
b1111 N
b1111 K"
b1011010000010000000 H"
b10100000 E"
b10110100000 C"
b10000 d
b10000 k
b10000000000000001000111111011000 r
b1000000000000 y
b0 v
b0 w
1%
1.
b10110100000 F"
b10000000000000000000010110100000 I"
b10000 P
b10011010000 G
b0 o
b10000000000000001000111111011000 t
b10000000000000001000111111011000 {
b10000000000000001000111111011000 u
b1111000010000000000001000000 X
b101011 L
b11110 A
b11110 U"
b11110 J
b0 H
b10000 M
b101011 7"
b10000 8"
b101011 P"
b10000000000000001000111111001000 p
b10000000000000001000111111011000 z
b10000000000000001000111111001000 f
b10000000000000001000111111001000 j
b10101111110000100000000000010000 0
b10101111110000100000000000010000 5
b10101111110000100000000000010000 ?
b10101111110000100000000000010000 3"
b10101111110000100000000000010000 J"
b10000000000000001000111111001000 @
b10000000000000001000111111001000 T
b10000000000000001000111111001000 Z"
b10000000000000000000010110100000 S
b10000000000000000000010110100000 R"
b10000000000000000000010110100000 Y"
b100110011 3
b10100010000 Y
b10011010000 V
b10011001100 -
b10011001100 h
11
#280
01
#290
b1111110111 #
b1111110111 8
b10000000000000001000111111011100 C
b10000000000000001000111111011100 X"
b10000000000000001000111111011100 +
b10000000000000001000111111011100 ]
b10000000000000001000111111011100 \
b10000000000000001000111111011100 T"
b10000000000000001000111111011100 a
b10000000000000001000111111011100 n
b10000000000000001000111111011100 <"
b0 >
b0 =
b0 ;
b0 $
b0 9
b0 H"
b0 E"
b0 C"
b0 *
b0 O
b0 F"
b0 [
b0 S"
b0 I"
b1111111111111110111000000100011 q
b10000000000000001000111111011100 {
b10000000000000001000111111011100 u
b0 G"
b10000000000000001000111111011100 r
b10000000000000001000111111011100 t
b10000000000000001000111111011100 z
b1010000000000 y
b10100 d
b10100 k
b0 B
b0 W"
b10100 P
b0 S
b0 R"
b0 Y"
b10011010100 G
b0 U
b0 V"
b1111000000000000000001010000 X
b0 I
b10100 M
b10100 8"
b10101111110000000000000000010100 0
b10101111110000000000000000010100 5
b10101111110000000000000000010100 ?
b10101111110000000000000000010100 3"
b10101111110000000000000000010100 J"
b100110100 3
b10100100100 Y
b10011010100 V
b10011010000 -
b10011010000 h
11
#300
01
