ex/ex11/proj/waveform/select-rop.vcd
$date
	Thu Jun 20 14:55:50 2024
$end
$version
	Icarus Verilog
$end
$timescale
	1ns
$end
$scope module testbench $end
$var wire 10 ! Raddr [9:0] $end
$var wire 1 " Rden $end
$var wire 10 # Waddr [9:0] $end
$var wire 32 $ Wdata [31:0] $end
$var wire 1 % Wren $end
$var wire 4 & Wstrb [3:0] $end
$var wire 1 ' mips_mem_rd $end
$var wire 32 ( mips_mem_rdata [31:0] $end
$var wire 4 ) mips_mem_wstrb [3:0] $end
$var wire 32 * mips_mem_wdata [31:0] $end
$var wire 32 + mips_mem_addr [31:0] $end
$var wire 32 , Rdata [31:0] $end
$var wire 32 - PC [31:0] $end
$var wire 1 . MemWrite $end
$var wire 1 / MemRead $end
$var wire 32 0 Instruction [31:0] $end
$var reg 1 1 mips_cpu_clk $end
$var reg 1 2 mips_cpu_reset $end
$scope module u_ideal_mem $end
$var wire 10 3 Raddr1 [9:0] $end
$var wire 10 4 Raddr2 [9:0] $end
$var wire 32 5 Rdata1 [31:0] $end
$var wire 32 6 Rdata2 [31:0] $end
$var wire 1 7 Rden1 $end
$var wire 1 " Rden2 $end
$var wire 10 8 Waddr [9:0] $end
$var wire 32 9 Wdata [31:0] $end
$var wire 1 % Wren $end
$var wire 4 : Wstrb [3:0] $end
$var wire 1 1 clk $end
$var wire 8 ; byte_3 [7:0] $end
$var wire 8 < byte_2 [7:0] $end
$var wire 8 = byte_1 [7:0] $end
$var wire 8 > byte_0 [7:0] $end
$upscope $end
$scope module u_mips_cpu $end
$var wire 32 ? Instruction [31:0] $end
$var wire 32 @ PC_now [31:0] $end
$var wire 32 A Read_data [31:0] $end
$var wire 1 1 clk $end
$var wire 1 2 rst $end
$var wire 32 B shifter_result [31:0] $end
$var wire 5 C shifter_oprand2 [4:0] $end
$var wire 32 D shifter_oprand1 [31:0] $end
$var wire 2 E shifter_op [1:0] $end
$var wire 32 F reg_file_rd2 [31:0] $end
$var wire 32 G reg_file_rd1 [31:0] $end
$var wire 5 H reg_file_ra2 [4:0] $end
$var wire 5 I reg_file_ra1 [4:0] $end
$var wire 32 J alu_result [31:0] $end
$var wire 32 K alu_oprandB [31:0] $end
$var wire 32 L alu_oprandA [31:0] $end
$var wire 3 M alu_op [2:0] $end
$var wire 1 N ZF $end
$var wire 4 O Write_strb [3:0] $end
$var wire 32 P Write_data [31:0] $end
$var wire 1 Q Shift $end
$var wire 1 R SF $end
$var wire 1 S RegWrite $end
$var wire 1 T RegDest $end
$var wire 1 U RF_wen $end
$var wire 32 V RF_wdata [31:0] $end
$var wire 5 W RF_waddr [4:0] $end
$var wire 32 X PC_next [31:0] $end
$var wire 1 Y Move $end
$var wire 1 Z MemtoReg $end
$var wire 1 . MemWrite $end
$var wire 1 / MemRead $end
$var wire 1 [ Jump_Reg $end
$var wire 1 \ Jump $end
$var wire 32 ] Imm_addr [31:0] $end
$var wire 1 ^ Branch $end
$var wire 32 _ Address [31:0] $end
$var wire 1 ` ALUsrc $end
$var reg 32 a PC [31:0] $end
$scope module Controller_instant $end
$var wire 3 b ALU_op_code [2:0] $end
$var wire 3 c ALUop [2:0] $end
$var wire 1 ` ALUsrc $end
$var wire 1 d BGEZ $end
$var wire 1 e BLTZ $end
$var wire 1 ^ Branch $end
$var wire 1 f I_branch $end
$var wire 32 g Instruction [31:0] $end
$var wire 1 h J $end
$var wire 1 i JR_I $end
$var wire 1 \ Jump $end
$var wire 1 [ Jump_Reg $end
$var wire 1 / MemRead $end
$var wire 1 . MemWrite $end
$var wire 1 Z MemtoReg $end
$var wire 1 Y Move $end
$var wire 1 j NOR_R $end
$var wire 1 k R_alu $end
$var wire 1 l R_j $end
$var wire 1 m R_m $end
$var wire 1 n R_shift $end
$var wire 1 T RegDest $end
$var wire 1 S RegWrite $end
$var wire 1 o SUB_R $end
$var wire 1 Q Shift $end
$var wire 2 p Shift_op [1:0] $end
$var wire 1 N ZF $end
$var wire 1 R SF $end
$var wire 1 q R_type $end
$var wire 1 r J_I $end
$var wire 1 s JAL_I $end
$var wire 6 t Instruction_OP [5:0] $end
$var wire 1 u I_write $end
$var wire 1 v I_read $end
$var wire 1 w I_alu $end
$var wire 1 x BNE $end
$var wire 1 y BLEZ $end
$var wire 1 z BGTZ $end
$var wire 1 { BEQ $end
$upscope $end
$scope module PC_next_instant $end
$var wire 32 | PC_next [31:0] $end
$var wire 32 } PC_now [31:0] $end
$var wire 1 ^ branch $end
$var wire 1 \ jump $end
$var wire 1 [ jump_reg $end
$var wire 32 ~ PC_plus [31:0] $end
$var wire 32 !" Imm_addr [31:0] $end
$upscope $end
$scope module Wire_connector_instant $end
$var wire 1 ` ALUsrc $end
$var wire 1 "" BGEZ $end
$var wire 1 ^ Branch $end
$var wire 32 #" Instruction [31:0] $end
$var wire 1 $" JAL $end
$var wire 1 %" JALR $end
$var wire 1 \ Jump $end
$var wire 1 [ Jump_Reg $end
$var wire 1 &" LB $end
$var wire 1 '" LH $end
$var wire 1 (" LWL $end
$var wire 1 )" LWR $end
$var wire 1 *" L_U $end
$var wire 1 +" MOVN $end
$var wire 1 ," MOVZ $end
$var wire 1 -" MOV_SUCC $end
$var wire 1 ." MOV_wen $end
$var wire 32 /" Mem_read_data [31:0] $end
$var wire 1 Z MemtoReg $end
$var wire 1 Y Move $end
$var wire 32 0" PC_Imm_addr [31:0] $end
$var wire 32 1" PC_now [31:0] $end
$var wire 5 2" RF_raddr2 [4:0] $end
$var wire 5 3" RF_waddr [4:0] $end
$var wire 32 4" RF_wdata [31:0] $end
$var wire 1 U RF_wen $end
$var wire 32 5" Read_data_B [31:0] $end
$var wire 32 6" Read_data_H [31:0] $end
$var wire 32 7" Read_data_LWL [31:0] $end
$var wire 32 8" Read_data_LWR [31:0] $end
$var wire 32 9" Read_data_O [31:0] $end
$var wire 1 T RegDest $end
$var wire 1 S RegWrite $end
$var wire 1 :" SB $end
$var wire 1 ;" SH $end
$var wire 1 <" SWL $end
$var wire 1 =" SWR $end
$var wire 1 Q Shift $end
$var wire 32 >" Wirte_data_cut_B [31:0] $end
$var wire 32 ?" Wirte_data_cut_H [31:0] $end
$var wire 32 @" Wirte_data_cut_SWL [31:0] $end
$var wire 32 A" Write_data [31:0] $end
$var wire 4 B" Write_strb [3:0] $end
$var wire 32 C" alu_oprandA [31:0] $end
$var wire 32 D" alu_oprandB [31:0] $end
$var wire 32 E" shifter_oprand1 [31:0] $end
$var wire 5 F" shifter_oprand2 [4:0] $end
$var wire 32 G" shifter_result [31:0] $end
$var wire 1 H" XORI $end
$var wire 32 I" Rt_data [31:0] $end
$var wire 32 J" Rs_data [31:0] $end
$var wire 5 K" RF_raddr1 [4:0] $end
$var wire 1 L" ORI $end
$var wire 32 M" L_extend [31:0] $end
$var wire 1 N" LUI $end
$var wire 4 O" LS_strb_SWR [3:0] $end
$var wire 4 P" LS_strb_SWL [3:0] $end
$var wire 4 Q" LS_strb_H [3:0] $end
$var wire 4 R" LS_strb_B [3:0] $end
$var wire 32 S" Instruction_15_0_U [31:0] $end
$var wire 32 T" Instruction_15_0 [31:0] $end
$var wire 1 U" I_write $end
$var wire 32 V" Alu_result [31:0] $end
$var wire 32 W" Address [31:0] $end
$var wire 1 X" ANDI $end
$upscope $end
$scope module alu_instant $end
$var wire 32 Y" A [31:0] $end
$var wire 3 Z" ALUop [2:0] $end
$var wire 32 [" B [31:0] $end
$var wire 32 \" B_NXOR [31:0] $end
$var wire 1 ]" CF_wire $end
$var wire 1 ^" OF_wire $end
$var wire 32 _" Result [31:0] $end
$var wire 1 `" ZF_wire $end
$var wire 1 N Zero $end
$var wire 1 a" isSUB $end
$var wire 1 b" slt_judge $end
$var wire 1 c" sltu_judge $end
$var wire 32 d" add_result [31:0] $end
$var wire 1 e" XOR $end
$var wire 1 R Sign $end
$var wire 1 f" SUB $end
$var wire 1 g" SLTU $end
$var wire 1 h" SLT $end
$var wire 1 i" OR $end
$var wire 1 j" NOR $end
$var wire 1 k" C_wire $end
$var wire 1 l" AND $end
$var wire 1 m" ADD $end
$upscope $end
$scope module reg_file_instant $end
$var wire 1 1 clk $end
$var wire 5 n" raddr1 [4:0] $end
$var wire 5 o" raddr2 [4:0] $end
$var wire 1 2 rst $end
$var wire 5 p" waddr [4:0] $end
$var wire 32 q" wdata [31:0] $end
$var wire 1 U wen $end
$var wire 32 r" rdata2 [31:0] $end
$var wire 32 s" rdata1 [31:0] $end
$upscope $end
$scope module shifter_instant $end
$var wire 32 t" A [31:0] $end
$var wire 5 u" B [4:0] $end
$var wire 32 v" Result [31:0] $end
$var wire 2 w" Shiftop [1:0] $end
$var wire 1 x" SRL $end
$var wire 32 y" SRA_result [31:0] $end
$var wire 1 z" SRA $end
$var wire 1 {" SLL $end
$upscope $end
$upscope $end
$upscope $end
$enddefinitions $end
#0
$dumpvars
x{"
xz"
bx y"
xx"
bx w"
bx v"
bx u"
bx t"
bx s"
bx r"
bx q"
bx p"
bx o"
bx n"
xm"
xl"
xk"
xj"
xi"
xh"
xg"
xf"
xe"
bx d"
xc"
xb"
xa"
x`"
bx _"
x^"
x]"
bx \"
bx ["
bx Z"
bx Y"
xX"
bx00 W"
bx V"
xU"
bx T"
b0xxxxxxxxxxxxxxxx S"
bx R"
bx Q"
bx1 P"
b1xxx O"
xN"
b0 M"
xL"
bx K"
bx J"
bx I"
xH"
bx G"
bx F"
bx E"
bx D"
bx C"
bx B"
bx A"
bx @"
bx ?"
bx >"
x="
x<"
x;"
x:"
bx 9"
bx00000000 8"
b0xxxxxxxxxxxxxxxxxxxxxxxx 7"
b0 6"
b0 5"
bx 4"
bx 3"
bx 2"
bx 1"
bx 0"
b0 /"
x."
x-"
x,"
x+"
x*"
x)"
x("
x'"
x&"
x%"
x$"
bx #"
x""
bx !"
bx ~
bx }
bx |
x{
xz
xy
xx
xw
xv
xu
bx t
xs
xr
xq
bx p
xo
xn
xm
xl
xk
xj
xi
xh
bx g
xf
xe
xd
bx c
bx b
bx a
x`
bx00 _
x^
bx ]
x\
x[
xZ
xY
bx X
bx W
bx V
xU
xT
xS
xR
xQ
bx P
bx O
xN
bx M
bx L
bx K
bx J
bx I
bx H
bx G
bx F
bx E
bx D
bx C
bx B
b0 A
bx @
bx ?
bx >
bx =
bx <
bx ;
bx :
bx 9
bx 8
17
b0 6
bx 5
b0 4
bx 3
12
01
bx 0
x/
x.
bx -
b0 ,
bx00 +
bx *
bx )
b0 (
0'
bx &
x%
bx $
bx #
0"
b0 !
$end
#10
0b"
0^"
0c"
0]"
b1111 O"
b11 Q"
b1 R"
b0 V
b0 4"
b0 q"
b0 d"
0k"
0R
1N
1`"
b0 +
b0 _
b0 W"
b1 P"
b0 \"
b0 J
b0 V"
b0 _"
b100 X
b100 |
0a"
1U
0m"
0h"
0g"
0f"
0l"
1i"
0e"
0j"
b101 M
b101 c
b101 Z"
1S
b1111 )
b1111 O
b1111 B"
b0 B
b0 G"
b0 v"
b0 8"
0^
b0 *
b0 P
b0 A"
0."
b0 @"
b0 7"
b0 9"
b0 K
b0 D"
b0 ["
b0 ?"
b0 >"
b11110 W
b11110 3"
b11110 p"
b100101 >
b11110000 =
b0 <
b0 ;
1{"
0%"
b101 b
0-"
b0 y"
b0 C
b0 F"
b0 u"
b0 ]
b0 !"
b0 0"
0`
0f
0[
0l
0+"
b0 D
b0 E"
b0 t"
b0 F
b0 I"
b0 r"
b0 #
b0 8
b0 &
b0 :
b0 $
b0 9
0Q
0n
0Y
0m
0i
0x"
0z"
b0 E
b0 p
b0 w"
0$"
0&"
0'"
0*"
0,"
b0 H
b0 2"
b0 o"
1k
0\
0h
0Z
0/
0v
0w
0%
0.
0u
0e
0d
0o
0j
0""
0("
0)"
0:"
0;"
0<"
0="
b0 L
b0 C"
b0 Y"
b0 G
b0 J"
b0 s"
1T
1q
0r
0s
b0 t
0{
0x
0y
0z
b11111111111111111111000000100101 T"
b1111000000100101 S"
0U"
0N"
0L"
0X"
0H"
b0 I
b0 K"
b0 n"
b1111000000100101 0
b1111000000100101 5
b1111000000100101 ?
b1111000000100101 g
b1111000000100101 #"
b0 3
b100 ~
b0 @
b0 }
b0 1"
b0 -
b0 a
11
#20
01
#30
bx00000000 8"
b1000 O"
b0 Q"
b1000 R"
0R
0N
0`"
b111111111111100 +
b111111111111100 _
b111111111111100 W"
b1111 P"
b111111111111111 J
b111111111111111 V"
b111111111111111 _"
0b"
1c"
1]"
b111111111111111 d"
0k"
1a"
b10000000000000010000000000000000 V
b10000000000000010000000000000000 4"
b10000000000000010000000000000000 q"
bx @"
b0 7"
bx B
bx G"
bx v"
b111111111111110 \"
1f"
0i"
b111 M
b111 c
b111 Z"
bx *
bx P
bx A"
b11111111111111111000000000000001 K
b11111111111111111000000000000001 D"
b11111111111111111000000000000001 ["
bx ?"
bx000000000000000000000000 >"
1`
b11101 W
b11101 3"
b11101 p"
bx y"
bx D
bx E"
bx t"
bx F
bx I"
bx r"
b1 b
b11101 H
b11101 2"
b11101 o"
0k
1w
0T
0q
b1111 t
b11111111111111111000000000000001 T"
b1000000000000001 S"
1N"
b1000 X
b1000 |
b111100000111011000000000000001 0
b111100000111011000000000000001 5
b111100000111011000000000000001 ?
b111100000111011000000000000001 g
b111100000111011000000000000001 #"
b1 3
b1000 ~
b100 @
b100 }
b100 1"
b100 -
b100 a
11
02
#40
01
#50
b10000000000000000 7"
b11 Q"
b1111 O"
b1 R"
b1 P"
1k"
1c"
1]"
1R
b10000000000000001001000000000000 +
b10000000000000001001000000000000 _
b10000000000000001001000000000000 W"
0a"
b10000000000000001001000000000000 V
b10000000000000001001000000000000 4"
b10000000000000001001000000000000 q"
b10000000000000001001000000000000 J
b10000000000000001001000000000000 V"
b10000000000000001001000000000000 _"
1m"
0f"
b1 M
b1 c
b1 Z"
b11111111111111111001000000000000 \"
1b"
b10000000000000010000000000000000 >"
b0 8"
b11111111111111111001000000000000 K
b11111111111111111001000000000000 D"
b11111111111111111001000000000000 ["
b10000000 @"
b0 b
b10000000000000001001000000000000 d"
b10000000000000010000000000000000 B
b10000000000000010000000000000000 G"
b10000000000000010000000000000000 v"
b10000000000000010000000000000000 L
b10000000000000010000000000000000 C"
b10000000000000010000000000000000 Y"
b10000000000000010000000000000000 G
b10000000000000010000000000000000 J"
b10000000000000010000000000000000 s"
b10000000000000010000000000000000 *
b10000000000000010000000000000000 P
b10000000000000010000000000000000 A"
b10000000000000010000000000000000 ?"
b1001 t
b11111111111111111001000000000000 T"
b1001000000000000 S"
0N"
b11101 I
b11101 K"
b11101 n"
b1100 X
b1100 |
b100111101111011001000000000000 0
b100111101111011001000000000000 5
b100111101111011001000000000000 ?
b100111101111011001000000000000 g
b100111101111011001000000000000 #"
b10000000000000010000000000000000 y"
b10000000000000010000000000000000 D
b10000000000000010000000000000000 E"
b10000000000000010000000000000000 t"
b10000000000000010000000000000000 F
b10000000000000010000000000000000 I"
b10000000000000010000000000000000 r"
b10 3
b1100 ~
b1000 @
b1000 }
b1000 1"
b1000 -
b1000 a
11
#60
01
#70
b1000 O"
b0 Q"
b1000 R"
b1111 P"
0b"
b0 @"
b10100 V
b10100 4"
b10100 q"
b10010100000 ]
b10010100000 !"
b10010100000 0"
0m"
1j"
b0 M
b0 c
b0 Z"
b11111111111111111111111111111100 +
b11111111111111111111111111111100 _
b11111111111111111111111111111100 W"
b0 \"
b11111111111111111111111111111111 J
b11111111111111111111111111111111 V"
b11111111111111111111111111111111 _"
0`
b0 K
b0 D"
b0 ["
0c"
0]"
1$"
b100 C
b100 F"
b100 u"
b11111 W
b11111 3"
b11111 p"
0k"
b0 H
b0 2"
b0 o"
1\
1h
0w
b0 7"
b0 B
b0 G"
b0 v"
1s
b11 t
b100101000 T"
b100101000 S"
b0 I
b0 K"
b0 n"
b0 *
b0 P
b0 A"
b0 ?"
b0 >"
b10010100000 X
b10010100000 |
b1100000000000000000100101000 0
b1100000000000000000100101000 5
b1100000000000000000100101000 ?
b1100000000000000000100101000 g
b1100000000000000000100101000 #"
b0 d"
b11 3
b0 L
b0 C"
b0 Y"
b0 G
b0 J"
b0 s"
b0 y"
b0 D
b0 E"
b0 t"
b0 F
b0 I"
b0 r"
b10000 ~
b1100 @
b1100 }
b1100 1"
b1100 -
b1100 a
11
#80
01
#90
b1001000000000000 7"
b10000000000000001001000000000000 >"
b11 Q"
b1111 O"
b1 R"
0N
0`"
b1 P"
b0 8"
1c"
1]"
1R
b10000000000000001000111111101000 +
b10000000000000001000111111101000 _
b10000000000000001000111111101000 W"
b10000000 @"
1k"
b10010100100 X
b10010100100 |
b10000000000000001000111111101000 J
b10000000000000001000111111101000 V"
b10000000000000001000111111101000 _"
b11111111111111111111111111101000 \"
b11101 W
b11101 3"
b11101 p"
1m"
0j"
b1 M
b1 c
b1 Z"
b10000000000000001001000000000000 *
b10000000000000001001000000000000 P
b10000000000000001001000000000000 A"
b11111111111111111111111111101000 K
b11111111111111111111111111101000 D"
b11111111111111111111111111101000 ["
b10000000000000001001000000000000 ?"
b0 ]
b0 !"
b0 0"
1b"
1`
b11111111111111111111111111111111 y"
b10000000000000001001000000000000 D
b10000000000000001001000000000000 E"
b10000000000000001001000000000000 t"
b10000000000000001001000000000000 F
b10000000000000001001000000000000 I"
b10000000000000001001000000000000 r"
b10000000000000001000111111101000 V
b10000000000000001000111111101000 4"
b10000000000000001000111111101000 q"
0$"
b11111 C
b11111 F"
b11111 u"
b10000000000000001000111111101000 d"
b11101 H
b11101 2"
b11101 o"
0\
0h
1w
b10000000000000001001000000000000 L
b10000000000000001001000000000000 C"
b10000000000000001001000000000000 Y"
b10000000000000001001000000000000 G
b10000000000000001001000000000000 J"
b10000000000000001001000000000000 s"
0s
b1001 t
b11111111111111111111111111101000 T"
b1111111111101000 S"
b11101 I
b11101 K"
b11101 n"
b100111101111011111111111101000 0
b100111101111011111111111101000 5
b100111101111011111111111101000 ?
b100111101111011111111111101000 g
b100111101111011111111111101000 #"
b100101000 3
b10010100100 ~
b10010100000 @
b10010100000 }
b10010100000 1"
b10010100000 -
b10010100000 a
11
#100
01
#110
0U
0c"
0]"
b0 @"
b10000000000000001000111111111100 V
b10000000000000001000111111111100 4"
b10000000000000001000111111111100 q"
0S
0k"
b1010000000000 B
b1010000000000 G"
b1010000000000 v"
b10000000000000001000111111111100 +
b10000000000000001000111111111100 _
b10000000000000001000111111111100 W"
b10100 >
b0 =
b0 ;
b10100 \"
b10000000000000001000111111111100 J
b10000000000000001000111111111100 V"
b10000000000000001000111111111100 _"
b10100 K
b10100 D"
b10100 ["
b1111111111 #
b1111111111 8
b1111 &
b1111 :
b10100 $
b10100 9
b100 b
b0 y"
b1000 C
b1000 F"
b1000 u"
b11111 W
b11111 3"
b11111 p"
b11111 H
b11111 2"
b11111 o"
0w
1%
1.
1u
b10100 7"
b101011 t
b10100 T"
b10100 S"
1U"
b10100 *
b10100 P
b10100 A"
b10100 ?"
b10100 >"
b10010101000 X
b10010101000 |
b10101111101111110000000000010100 0
b10101111101111110000000000010100 5
b10101111101111110000000000010100 ?
b10101111101111110000000000010100 g
b10101111101111110000000000010100 #"
b10000000000000001000111111111100 d"
b100101001 3
b10000000000000001000111111101000 L
b10000000000000001000111111101000 C"
b10000000000000001000111111101000 Y"
b10000000000000001000111111101000 G
b10000000000000001000111111101000 J"
b10000000000000001000111111101000 s"
b10100 D
b10100 E"
b10100 t"
b10100 F
b10100 I"
b10100 r"
b10010101000 ~
b10010100100 @
b10010100100 }
b10010100100 1"
b10010100100 -
b10010100100 a
11
#120
01
#130
b1000 O"
b0 Q"
b1000 R"
b1111 P"
b10010110000 V
b10010110000 4"
b10010110000 q"
1R
b11111111111111111111111111111100 +
b11111111111111111111111111111100 _
b11111111111111111111111111111100 W"
1U
b11111111111111111111111111111111 J
b11111111111111111111111111111111 V"
b11111111111111111111111111111111 _"
b0 7"
b0 B
b0 G"
b0 v"
b1111010100 ]
b1111010100 !"
b1111010100 0"
0m"
1j"
b0 M
b0 c
b0 Z"
1S
b0 *
b0 P
b0 A"
b0 ?"
b0 >"
b11110000 =
b100101 >
b0 \"
b0 C
b0 F"
b0 u"
0b"
b0 K
b0 D"
b0 ["
b0 D
b0 E"
b0 t"
b0 F
b0 I"
b0 r"
1$"
0`
b0 #
b0 8
b0 &
b0 :
b0 $
b0 9
b101 b
b11111 W
b11111 3"
b11111 p"
b0 d"
b0 H
b0 2"
b0 o"
1\
1h
0%
0.
0u
b0 L
b0 C"
b0 Y"
b0 G
b0 J"
b0 s"
1s
b11 t
b11110101 T"
b11110101 S"
0U"
b0 I
b0 K"
b0 n"
b1111010100 X
b1111010100 |
b1100000000000000000011110101 0
b1100000000000000000011110101 5
b1100000000000000000011110101 ?
b1100000000000000000011110101 g
b1100000000000000000011110101 #"
b100101010 3
b10010101100 ~
b10010101000 @
b10010101000 }
b10010101000 1"
b10010101000 -
b10010101000 a
11
#140
01
#150
b1000111111101000 7"
b11 Q"
b1111 O"
b1 R"
0N
0`"
b1 P"
b10000000000000001000111111101000 >"
b0 8"
1c"
1]"
1R
b10000000000000001000111111001000 +
b10000000000000001000111111001000 _
b10000000000000001000111111001000 W"
b10000000 @"
1k"
b1111011000 X
b1111011000 |
b10000000000000001000111111001000 J
b10000000000000001000111111001000 V"
b10000000000000001000111111001000 _"
b11111111111111111111111111100000 \"
b11101 W
b11101 3"
b11101 p"
1m"
0j"
b1 M
b1 c
b1 Z"
b10000000000000001000111111101000 *
b10000000000000001000111111101000 P
b10000000000000001000111111101000 A"
b11111111111111111111111111100000 K
b11111111111111111111111111100000 D"
b11111111111111111111111111100000 ["
b10000000000000001000111111101000 ?"
b0 ]
b0 !"
b0 0"
1b"
1`
b11111 C
b11111 F"
b11111 u"
b11111111111111111111111111111111 y"
b10000000000000001000111111101000 D
b10000000000000001000111111101000 E"
b10000000000000001000111111101000 t"
b10000000000000001000111111101000 F
b10000000000000001000111111101000 I"
b10000000000000001000111111101000 r"
b10000000000000001000111111001000 V
b10000000000000001000111111001000 4"
b10000000000000001000111111001000 q"
0$"
b0 b
b10000000000000001000111111001000 d"
b11101 H
b11101 2"
b11101 o"
0\
0h
1w
b10000000000000001000111111101000 L
b10000000000000001000111111101000 C"
b10000000000000001000111111101000 Y"
b10000000000000001000111111101000 G
b10000000000000001000111111101000 J"
b10000000000000001000111111101000 s"
0s
b1001 t
b11111111111111111111111111100000 T"
b1111111111100000 S"
b11101 I
b11101 K"
b11101 n"
b100111101111011111111111100000 0
b100111101111011111111111100000 5
b100111101111011111111111100000 ?
b100111101111011111111111100000 g
b100111101111011111111111100000 #"
b11110101 3
b1111011000 ~
b1111010100 @
b1111010100 }
b1111010100 1"
b1111010100 -
b1111010100 a
11
#160
01
#170
0U
b10000000000000001000111111100100 V
b10000000000000001000111111100100 4"
b10000000000000001000111111100100 q"
0c"
0]"
b0 @"
b10000000000000001000111111100100 +
b10000000000000001000111111100100 _
b10000000000000001000111111100100 W"
0S
0k"
b1001011000000000000 B
b1001011000000000000 G"
b1001011000000000000 v"
b10000000000000001000111111100100 J
b10000000000000001000111111100100 V"
b10000000000000001000111111100100 _"
b10110000 >
b100 =
b0 ;
b11100 \"
b11100 K
b11100 D"
b11100 ["
b1111111001 #
b1111111001 8
b1111 &
b1111 :
b100 b
b100 y"
b1000 C
b1000 F"
b1000 u"
b11111 W
b11111 3"
b11111 p"
b11111 H
b11111 2"
b11111 o"
b10010110000 7"
b10010110000 $
b10010110000 9
0w
1%
1.
1u
b10010110000 *
b10010110000 P
b10010110000 A"
b10010110000 ?"
b10010110000 >"
b101011 t
b11100 T"
b11100 S"
1U"
b10000000000000001000111111100100 d"
b1111011100 X
b1111011100 |
b10101111101111110000000000011100 0
b10101111101111110000000000011100 5
b10101111101111110000000000011100 ?
b10101111101111110000000000011100 g
b10101111101111110000000000011100 #"
b10000000000000001000111111001000 L
b10000000000000001000111111001000 C"
b10000000000000001000111111001000 Y"
b10000000000000001000111111001000 G
b10000000000000001000111111001000 J"
b10000000000000001000111111001000 s"
b10010110000 D
b10010110000 E"
b10010110000 t"
b10010110000 F
b10010110000 I"
b10010110000 r"
b11110110 3
b1111011100 ~
b1111011000 @
b1111011000 }
b1111011000 1"
b1111011000 -
b1111011000 a
11
#180
01
#190
b1111111000 #
b1111111000 8
b10000000000000001000111111100000 V
b10000000000000001000111111100000 4"
b10000000000000001000111111100000 q"
b10000000000000001000111111100000 +
b10000000000000001000111111100000 _
b10000000000000001000111111100000 W"
b10000000000000001000111111100000 J
b10000000000000001000111111100000 V"
b10000000000000001000111111100000 _"
b0 >
b0 =
b0 7"
b0 $
b0 9
b10000000000000001000111111100000 d"
b0 B
b0 G"
b0 v"
b0 *
b0 P
b0 A"
b0 ?"
b0 >"
b11000 \"
b11000 K
b11000 D"
b11000 ["
b0 D
b0 E"
b0 t"
b0 F
b0 I"
b0 r"
b0 b
b0 y"
b0 C
b0 F"
b0 u"
b11110 W
b11110 3"
b11110 p"
b11110 H
b11110 2"
b11110 o"
b11000 T"
b11000 S"
b1111100000 X
b1111100000 |
b10101111101111100000000000011000 0
b10101111101111100000000000011000 5
b10101111101111100000000000011000 ?
b10101111101111100000000000011000 g
b10101111101111100000000000011000 #"
b11110111 3
b1111100000 ~
b1111011100 @
b1111011100 }
b1111011100 1"
b1111011100 -
b1111011100 a
11
#200
01
#210
b10000000000000001000111111001000 V
b10000000000000001000111111001000 4"
b10000000000000001000111111001000 q"
1R
0N
0`"
b10000000000000001000111111001000 +
b10000000000000001000111111001000 _
b10000000000000001000111111001000 W"
b10000000000000001000111111001000 J
b10000000000000001000111111001000 V"
b10000000000000001000111111001000 _"
1U
0c"
0]"
0m"
1i"
b101 M
b101 c
b101 Z"
1S
b10000000000000001000111111001000 d"
0k"
b100101 >
b11110000 =
b0 \"
b0 K
b0 D"
b0 ["
0`
b0 #
b0 8
b0 &
b0 :
b101 b
b1000 C
b1000 F"
b1000 u"
b11110 W
b11110 3"
b11110 p"
b0 H
b0 2"
b0 o"
1k
0%
0.
0u
1T
1q
b0 t
b11111111111111111111000000100101 T"
b1111000000100101 S"
0U"
b1111100100 X
b1111100100 |
b11101000001111000000100101 0
b11101000001111000000100101 5
b11101000001111000000100101 ?
b11101000001111000000100101 g
b11101000001111000000100101 #"
b11111000 3
b1111100100 ~
b1111100000 @
b1111100000 }
b1111100000 1"
b1111100000 -
b1111100000 a
11
#220
01
#230
b0 8"
b1111 O"
b11 Q"
b1 R"
b1 P"
0R
0N
0`"
b1000000000000000 +
b1000000000000000 _
b1000000000000000 W"
b1000000000000000 J
b1000000000000000 V"
b1000000000000000 _"
1c"
1]"
b10000000000000000000000000000000 V
b10000000000000000000000000000000 4"
b10000000000000000000000000000000 q"
0k"
1a"
b0xxxxxxxx @"
b0xxxxxxxxxxxxxxxxxxxxxxxx 7"
bx B
bx G"
bx v"
b111111111111111 \"
1f"
0i"
b111 M
b111 c
b111 Z"
bx *
bx P
bx A"
b11111111111111111000000000000000 K
b11111111111111111000000000000000 D"
b11111111111111111000000000000000 ["
bx ?"
bx >"
0b"
1`
b10 W
b10 3"
b10 p"
bx y"
bx D
bx E"
bx t"
bx F
bx I"
bx r"
b0 b
b0 C
b0 F"
b0 u"
b1000000000000000 d"
b10 H
b10 2"
b10 o"
0k
1w
b0 L
b0 C"
b0 Y"
b0 G
b0 J"
b0 s"
0T
0q
b1111 t
b11111111111111111000000000000000 T"
b1000000000000000 S"
1N"
b0 I
b0 K"
b0 n"
b1111101000 X
b1111101000 |
b111100000000101000000000000000 0
b111100000000101000000000000000 5
b111100000000101000000000000000 ?
b111100000000101000000000000000 g
b111100000000101000000000000000 #"
b11111001 3
b1111101000 ~
b1111100100 @
b1111100100 }
b1111100100 1"
b1111100100 -
b1111100100 a
11
#240
01
#250
b0 8"
b1111 O"
b11 Q"
b1 R"
b1 P"
0^"
1R
b10000000000000000000010011000000 +
b10000000000000000000010011000000 _
b10000000000000000000010011000000 W"
0a"
0c"
0]"
b10000000000000000000010011000000 V
b10000000000000000000010011000000 4"
b10000000000000000000010011000000 q"
b10000000000000000000010011000000 J
b10000000000000000000010011000000 V"
b10000000000000000000010011000000 _"
1m"
0f"
b1 M
b1 c
b1 Z"
0k"
b10011000000 \"
1b"
b10011000000 K
b10011000000 D"
b10011000000 ["
b10011 C
b10011 F"
b10011 u"
b10000000000000000000010011000000 d"
b10000000 @"
b0 7"
b0 B
b0 G"
b0 v"
b10000000000000000000000000000000 L
b10000000000000000000000000000000 C"
b10000000000000000000000000000000 Y"
b10000000000000000000000000000000 G
b10000000000000000000000000000000 J"
b10000000000000000000000000000000 s"
b10000000000000000000000000000000 *
b10000000000000000000000000000000 P
b10000000000000000000000000000000 A"
b10000000000000000000000000000000 ?"
b10000000000000000000000000000000 >"
b1001 t
b10011000000 T"
b10011000000 S"
0N"
b10 I
b10 K"
b10 n"
b1111101100 X
b1111101100 |
b100100010000100000010011000000 0
b100100010000100000010011000000 5
b100100010000100000010011000000 ?
b100100010000100000010011000000 g
b100100010000100000010011000000 #"
b11111111111111111111000000000000 y"
b10000000000000000000000000000000 D
b10000000000000000000000000000000 E"
b10000000000000000000000000000000 t"
b10000000000000000000000000000000 F
b10000000000000000000000000000000 I"
b10000000000000000000000000000000 r"
b11111010 3
b1111101100 ~
b1111101000 @
b1111101000 }
b1111101000 1"
b1111101000 -
b1111101000 a
11
#260
01
